METE133 – Random Forest con {tidymodels}
…
Predecir utilizando el modelo entrenado

rf_fit <- workflow() |> 
  add_formula(zinc ~ dist+soil ) |> 
  add_model(rf_spec) |> 
  fit(data = meuse_train) 

predict(rf_fit, new_data = meuse_test)

# A tibble: 39 × 1
   .pred
   <dbl>
 1  962.
 2  830.
 3  461.
 4  450.
 5  228.
 6  223.
 7  830.
 8  966.
 9  966.
10  223.
# ℹ 29 more rows

Evaluar las predicciones

augment(rf_fit, new_data = meuse_test)

# A tibble: 39 × 15
   .pred      x      y cadmium copper  lead  zinc  elev    dist    om ffreq
 * <dbl>  <dbl>  <dbl>   <dbl>  <dbl> <dbl> <dbl> <dbl>   <dbl> <dbl> <fct>
 1  962. 181072 333611    11.7     85   299  1022  7.91 0.00136  13.6 1    
 2  830. 181025 333558     8.6     81   277  1141  6.98 0.0122   14   1    
 3  461. 181165 333537     6.5     68   199   640  7.8  0.103    13   1    
 4  450. 181060 333231     2.4     37   133   347  8.67 0.185    10.6 1    
 5  228. 181232 333168     1.6     24    80   183  9.05 0.310     6.3 1    
 6  223. 181191 333115     1.4     25    86   189  9.02 0.315     6.4 1    
 7  830. 180694 332972     7.1     69   148   711  7.1  0.0122   16   1    
 8  966. 180625 332847     8.7     69   207   735  7.02 0        13.7 1    
 9  966. 180555 332707    12.9     95   284  1052  6.86 0        14.8 1    
10  223. 180973 332687     1.3     24    67   180  8.74 0.321     4.4 1    
# ℹ 29 more rows
# ℹ 4 more variables: soil <fct>, lime <fct>, landuse <fct>, dist.m <dbl>
…
collect_metrics(final_fit)

# A tibble: 2 × 4
  .metric .estimator .estimate .config             
  <chr>   <chr>          <dbl> <chr>               
1 rmse    standard     217.    Preprocessor1_Model1
2 rsq     standard       0.667 Preprocessor1_Model1

Estas son las métricas calculadas sobre el set de testeo.

El ajuste final

collect_predictions(final_fit)

# A tibble: 39 × 5
   .pred id                .row  zinc .config             
   <dbl> <chr>            <int> <dbl> <chr>               
 1  972. train/test split     1  1022 Preprocessor1_Model1
 2  838. train/test split     2  1141 Preprocessor1_Model1
 3  466. train/test split     3   640 Preprocessor1_Model1
 4  448. train/test split     9   347 Preprocessor1_Model1
 5  229. train/test split    10   183 Preprocessor1_Model1
 6  226. train/test split    11   189 Preprocessor1_Model1
 7  838. train/test split    18   711 Preprocessor1_Model1
 8  977. train/test split    19   735 Preprocessor1_Model1
 9  977. train/test split    20  1052 Preprocessor1_Model1
10  225. train/test split    28   180 Preprocessor1_Model1
# ℹ 29 more rows
…
