DEINE114 – Análisis Espacial con R
…
10. Extracción raster

Desde líneas

10. Extracción raster

Desde polígono

zion_srtm_values = terra::extract(x = srtm, y = zion)

library(tidyverse)
zion_srtm_values |> as_tibble()

# A tibble: 88,080 × 2
      ID  srtm
   <dbl> <int>
 1     1  1666
 2     1  1677
 3     1  1708
 4     1  1735
 5     1  1751
 6     1  1770
 7     1  1789
 8     1  1789
 9     1  1776
10     1  1799
# ℹ 88,070 more rows
…
